{
  "santos": [
    {
      "nombre": "Manila luzon",
      "constelacion": "Seaon 03",
      "armadura": "RUNNER-UP",
      "id": 3
    },
    {
      "nombre": "Alexis mateo",
      "constelacion": "Season 03",
      "armadura": "TOP 03",
      "id": 4
    },
    {
      "nombre": "raja",
      "constelacion": "Season 03",
      "armadura": "WINNER",
      "id": 5
    },
    {
      "nombre": "Tyra Sanchez",
      "constelacion": "Season 02",
      "armadura": "WINNER",
      "id": 8
    },
    {
      "nombre": "RAVEN",
      "constelacion": "Season 02",
      "armadura": "RUNNER-UP",
      "id": 9
    },
    {
      "nombre": "Jujube",
      "constelacion": "Seaon 02",
      "armadura": "Top 03",
      "id": 10
    },
    {
      "nombre": "Yvi Oddly",
      "constelacion": "Season 11",
      "armadura": "WINNER",
      "id": 11
    },
    {
      "nombre": "BEBE ZAHARA BENET",
      "constelacion": "Season 01",
      "armadura": "WINNER",
      "id": 12
    },
    {
      "nombre": "Violet Chasky",
      "constelacion": "Season 07",
      "armadura": "WINNER",
      "id": 13
    }
  ]
}